{
  "firestore": {
    "rules": "firestore.rules",
    "indexes": "firestore.indexes.json"
  },
  "hosting": {
    "public": "apps/health-4-her-app/out",
    "cleanUrls": true,
    "ignore": ["firebase.json", "**/.*", "**/node_modules/**"]
  },
  "functions": [
    {
      "source": "apps/health-4-her-api/functions",
      "codebase": "default",
      "ignore": [
        "node_modules",
        ".git",
        "firebase-debug.log",
        "firebase-debug.*.log"
      ],
      "predeploy": [
        "npm --prefix \"$RESOURCE_DIR\" run lint",
        "npm --prefix \"$RESOURCE_DIR\" run build"
      ]
    }
  ],
  "emulators": {
    "auth": {
      "port": 9099
    },
    "functions": {
      "port": 5001
    },
    "pubsub": {
      "port": 8087
    },
    "ui": {
      "enabled": true
    },
    "singleProjectMode": true,
    "firestore": {
      "port": 8080
    },
    "hosting": {
      "port": 5000
    },
    "storage": {
      "port": 9199
    }
  },
  "storage": {
    "rules": "storage.rules"
  }
}
